<?xml version="1.0" encoding="utf-8"?>
<!-- Generator: Adobe Illustrator 21.0.0, SVG Export Plug-In . SVG Version: 6.00 Build 0)  -->
<svg version="1.1" id="Слой_1" xmlns="http://www.w3.org/2000/svg" xmlns:xlink="http://www.w3.org/1999/xlink" x="0px" y="0px"
	 viewBox="0 0 39 39" style="enable-background:new 0 0 39 39;" xml:space="preserve">
<style type="text/css">
	.st0{fill:none;stroke:#FFB230;stroke-width:2;}
	.st1{fill:#FFB230;}
</style>
<circle id="Ellipse_1_copy_5" class="st0" cx="19.5" cy="19.5" r="18.5"/>
<path id="К" class="st1" d="M22.1,20.8c-0.2-0.3-0.4-0.6-0.6-0.8c-0.2-0.2-0.5-0.3-0.8-0.4c0.2-0.1,0.4-0.2,0.6-0.3
	c0.2-0.1,0.3-0.3,0.5-0.5l3.2-4.6H23c-0.2,0-0.4,0-0.5,0.2c-0.2,0.1-0.3,0.3-0.4,0.4l-2.5,3.7c-0.1,0.2-0.3,0.3-0.4,0.4
	c-0.2,0.1-0.4,0.1-0.6,0.1h-1.1v-4.8h-2.2v11.6h2.2v-5.1h1.3c0.1,0,0.2,0,0.3,0c0.1,0,0.2,0,0.3,0.1c0.1,0,0.2,0.1,0.2,0.2
	c0.1,0.1,0.1,0.2,0.2,0.3l2.5,3.9c0.1,0.2,0.2,0.3,0.4,0.5c0.1,0.1,0.3,0.2,0.5,0.2h1.9L22.1,20.8z"/>
</svg>
