<?xml version="1.0" encoding="utf-8"?>
<!-- Generator: Adobe Illustrator 21.0.0, SVG Export Plug-In . SVG Version: 6.00 Build 0)  -->
<svg version="1.1" id="Слой_1" xmlns="http://www.w3.org/2000/svg" xmlns:xlink="http://www.w3.org/1999/xlink" x="0px" y="0px"
	 viewBox="0 0 39 39" style="enable-background:new 0 0 39 39;" xml:space="preserve">
<style type="text/css">
	.st0{fill:none;stroke:#FFB230;stroke-width:2;}
	.st1{fill:#FFB230;}
</style>
<circle id="Ellipse_1_copy_4" class="st0" cx="19.5" cy="19.5" r="18.5"/>
<path id="Л" class="st1" d="M23.6,14.1h-7.4c0,1.2-0.1,2.2-0.1,3.1s-0.2,1.7-0.2,2.4c-0.1,0.6-0.2,1.2-0.3,1.8
	c-0.1,0.4-0.2,0.8-0.3,1.2c-0.1,0.3-0.2,0.6-0.4,0.8c-0.1,0.2-0.2,0.3-0.4,0.5C14.3,23.9,14.2,24,14,24c-0.1,0-0.3,0-0.4,0H13v1.3
	c0,0.1,0.1,0.3,0.3,0.3c0.3,0.1,0.6,0.1,0.8,0.1c0.4,0,0.7,0,1-0.1c0.3-0.1,0.7-0.3,0.9-0.5c0.3-0.3,0.6-0.7,0.8-1.1
	c0.3-0.6,0.5-1.2,0.6-1.8c0.2-0.9,0.4-1.8,0.5-2.7c0.1-1.1,0.2-2.3,0.3-3.8h3.2v9.9h2.2V14.1z"/>
</svg>
