<?xml version="1.0" encoding="utf-8"?>
<!-- Generator: Adobe Illustrator 21.0.0, SVG Export Plug-In . SVG Version: 6.00 Build 0)  -->
<svg version="1.1" id="Слой_1" xmlns="http://www.w3.org/2000/svg" xmlns:xlink="http://www.w3.org/1999/xlink" x="0px" y="0px"
	 viewBox="0 0 19.7 42" style="enable-background:new 0 0 19.7 42;" xml:space="preserve">
<style type="text/css">
	.st0{fill:#FFB230;}
</style>
<title>Ресурс 1</title>
<g id="Слой_2">
	<g id="Capa_1">
		<path class="st0" d="M9.3,8.9c2.2,0,4-2.6,4-4.8s-1.8-4-4-4s-4,1.8-4,4C5.2,6.3,7,8.9,9.3,8.9z"/>
		<path class="st0" d="M19,25.9h-1.1v-1.1c0.5-0.3,0.7-0.9,0.7-1.5l-1.3-11.5c0-0.1,0-0.1-0.1-0.2c0-0.1-0.1-0.2-0.1-0.3
			s-0.1-0.1-0.2-0.2c-0.1-0.1-0.1-0.2-0.2-0.3s-0.2-0.1-0.2-0.1c-0.1-0.1-0.2-0.1-0.2-0.1c-2-0.7-4.2-1.2-6.3-1.4L9.5,10l0,0
			l1.1,8.4l-1.3,2.3L8,18.4L9.1,10l0,0L8.7,9.2c-2.2,0.2-4.3,0.6-6.3,1.4c-0.1,0-0.2,0.1-0.2,0.1c-0.1,0-0.2,0.1-0.2,0.1
			c-0.1,0.1-0.2,0.2-0.2,0.3c-0.1,0.1-0.1,0.1-0.1,0.2c0,0.1-0.1,0.2-0.1,0.4c0,0.1-0.1,0.1-0.1,0.2L0,23.4
			c-0.1,0.9,0.5,1.7,1.4,1.8l0,0h0.2c0.8,0,1.5-0.6,1.6-1.4l1.2-10.5l0.4-0.1v10.9L3.5,39.9c-0.1,1.1,0.7,2,1.7,2.1l0,0h0.2
			c1,0,1.8-0.8,1.9-1.8l1.2-14.3c0.5,0.2,1.1,0.2,1.6,0l1.1,14.3c0.1,1,0.9,1.8,1.9,1.8h0.2c1.1-0.1,1.8-1,1.7-2.1l0,0l-1.2-15.8
			v-11l0.4,0.1l1.2,10.5c0.1,0.8,0.7,1.3,1.4,1.4V26h-1.1c-0.4,0-0.6,0.3-0.6,0.6v9.7c0,0.4,0.3,0.6,0.6,0.6H19
			c0.4,0,0.6-0.3,0.6-0.6v-9.7C19.6,26.2,19.4,25.9,19,25.9L19,25.9z"/>
	</g>
</g>
</svg>
